{
  "swagger": "2.0",
  "info": {
    "version": "1.0",
    "title": "bank.ru"
  },
  "basePath": "/",
  "host": "bank.ru",
  "paths": {
    "/list/extended": {
      "post": {
        "operationId": "Create",
        "consumes": [
          "application/json"
        ],
        "parameters": [
          {
            "name": "Cookie",
            "in": "header",
            "required": true,
            "type": "string"
          },
          {
            "in": "body",
            "name": "body",
            "description": "Request body",
            "required": true,
            "schema": {
              "$ref": "#/definitions/extendedRq"
            }
          }
        ],
        "responses": {
          "403": {
            "description": "Forbidden"
          },
          "200": {
            "description": "OK",
            "schema": {
              "$ref": "#/definitions/extendedRs"
            }
          }
        }
      }
    }
  },
  "definitions": {
    "extendedRq": {
      "type": "object",
      "properties": {
        "extendedInfo": {
          "type": "boolean",
          "description": "true - расширенный запрос, false - базовая информация"
        },
        "cards": {
          "type": "array",
          "description": "Список карт Клиента",
          "items": {
            "type": "object",
            "additionalProperties": false,
            "properties": {
              "cardId": {
                "type": "integer",
                "description": "Идентификатор карты"
              }
            },
            "required": [
              "cardId"
            ]
          }
        }
      },
      "additionalProperties": false
    },
    "extendedRs": {
      "type": "object",
      "properties": {
        "success": {
          "type": "boolean"
        },
        "body": {
          "type": "object",
          "properties": {
            "cards": {
              "type": "array",
              "items": {
                "type": "object",
                "additionalProperties": false,
                "properties": {
                  "cardId": {
                    "type": "integer",
                    "description": "Идентификатор карты"
                  },
                  "newLink": {
                    "type": "object",
                    "additionalProperties": false,
                    "properties": {
                      "estimatedFull": {
                        "type": "string",
                        "maxLength": 30,
                        "description": "Прогнозная сумма абонентской платы"
                      },
                      "estimatedEconom": {
                        "type": "string",
                        "maxLength": 30,
                        "description": "Прогнозная сумма абонентской платы для экономного тарифа"
                      }
                    }
                  },
                  "links": {
                    "type": "array",
                    "items": {
                      "type": "object",
                      "additionalProperties": false,
                      "properties": {
                        "phoneNumber": {
                          "type": "string",
                          "maxLength": 150,
                          "description": "Маскированный номер телефона, подключенного данной карте"
                        },
                        "tariff": {
                          "type": "string",
                          "maxLength": 1,
                          "description": "Текущий тариф"
                        },
                        "estimatedFull": {
                          "type": "string",
                          "maxLength": 30,
                          "description": "Прогнозная сумма абонентской платы для полного тарифа"
                        },
                        "estimatedEconom": {
                          "type": "string",
                          "maxLength": 30,
                          "description": "Прогнозная сумма абонентской платы для экономного тарифа"
                        },
                        "state": {
                          "type": "object",
                          "description": "Информация по статусу заявки",
                          "properties": {
                            "stateCode": {
                              "type": "string",
                              "maxLength": 150,
                              "description": "Статус обработки запроса на подключение/изменение услуги"
                            },
                            "stateDetails": {
                              "type": "string",
                              "maxLength": 300,
                              "description": "Текст для отображению клиенту"
                            }
                          },
                          "additionalProperties": false
                        },
                        "details": {
                          "type": "object",
                          "description": "Дополнительные сведения по настройкам услуги",
                          "properties": {
                            "paymentCardId": {
                              "type": "integer",
                              "description": "ID карты"
                            },
                            "paymentBlock": {
                              "type": "integer",
                              "description": "Признак блокировки по неоплате"
                            },
                            "cost": {
                              "type": "string",
                              "maxLength": 30,
                              "description": "Текущая сумма абонентской платы"
                            },
                            "firstRegDate": {
                              "type": "string",
                              "maxLength": 20,
                              "description": "Дата первой регистрации"
                            },
                            "block": {
                              "type": "integer",
                              "description": "Признак блокировки номера телефона"
                            },
                            "operName": {
                              "type": "string",
                              "maxLength": 20,
                              "description": "Оператор сотовой связи, к которому подключен телефон"
                            },
                            "changeDate": {
                              "type": "string",
                              "maxLength": 20,
                              "description": "Дата и время последнего изменения"
                            }
                          },
                          "additionalProperties": false
                        }
                      }
                    }
                  }
                },
                "required": [
                  "cardId"
                ]
              }
            }
          },
          "additionalProperties": false
        },
        "error": {
          "type": "object",
          "additionalProperties": false,
          "properties": {
            "uuid": {
              "type": "string",
              "maxLength": 150
            },
            "code": {
              "type": "string",
              "maxLength": 150
            },
            "system": {
              "type": "string",
              "maxLength": 150
            },
            "title": {
              "type": "string",
              "maxLength": 150
            },
            "text": {
              "type": "string",
              "maxLength": 150
            }
          }
        }
      },
      "additionalProperties": false
    }
  }
}